﻿public void Alterar(exDTO mus)
        {
            string script =
            @"UPDATE tb_ 
                 SET nm_  = @nm_,	                 
               WHERE id_musica = @id_musica";

            List<MySqlParameter> parms = new List<MySqlParameter>();
            parms.Add(new MySqlParameter("atri1", mus.atri1));
            parms.Add(new MySqlParameter("", mus.));
            parms.Add(new MySqlParameter("", mus.));
            parms.Add(new MySqlParameter("", mus.));
            parms.Add(new MySqlParameter("", mus.));
            parms.Add(new MySqlParameter("", mus.));
            parms.Add(new MySqlParameter("", mus.));
            parms.Add(new MySqlParameter("", mus.));

            Database db = new Database();
            db.ExecuteInsertScript(script, parms);
        }